[{
        "subject": "Strategic Management Accounting",
        "results": [{
                "year": 2015,
                "grade": "FAIL"
            },
            {
                "year": 2016,
                "grade": "PASS"
            }
        ]
    },
    {
        "subject": "Financial Reporting",
        "results": [{
                "year": 2015,
                "grade": "FAIL"
            },
            {
                "year": 2016,
                "grade": "PASS"
            }
        ]
    },
    {
        "subject": "Advanced Taxation",
        "results": [{
            "year": 2016,
            "grade": "PASS"
        }]
    },
    {
        "subject": "Financial Risk Management",
        "results": [{
            "year": 2015,
            "grade": "PASS"
        }]
    },
    {
        "subject": "Advanced Audit and Assurance",
        "results": [{
            "year": 2015,
            "grade": "PASS"
        }]
    }
]